{
  "count": 6,
  "next": "http://localhost:8000/home/news/?page=2",
  "previous": null,
  "results": [
    {
      "id": 4,
      "title": "News 1",
      "photo": null,
      "created": "2017-05-22"
    },
    {
      "id": 5,
      "title": "News 2",
      "photo": null,
      "created": "2017-05-22"
    },
    {
      "id": 6,
      "title": "News 3",
      "photo": null,
      "created": "2017-05-22"
    },
    {
      "id": 7,
      "title": "News 4",
      "photo": null,
      "created": "2017-05-22"
    },
    {
      "id": 8,
      "title": "News 5",
      "photo": null,
      "created": "2017-05-22"
    }
  ]
}